{
	"rRNA" : {
		"highMinRRnas" : 3,
		"db" : "binQc.cm"
	},

	"tRNA" : {
		"highMinTRnas" : 18
	},

	"BIN" : {
		"largeContigSize" : 500000,
		"refineM" : 1,
		"taxFilter" : 0,
		"exe" : {
			"metabat1" : "metabat1 --superspecific",
			"metabat2" : "metabat2"
		}
	},

	"CHECKM" : {
		"highMinCompleteness" : 90,
		"highMaxContamination" : 5,
		"medMinCompleteness" : 50,
		"medMaxContamination" : 10,
		"keepFiles" : 0
	},

	"PROTEINS" : {
		"nr" : "/some/dir/db/img.nr-20171207/img_nr",
		"taxFile" : "/some/dir/db/img.nr-20171207/taxonOid2Taxonomy.txt",
		"mapFile" : "/some/dir/img.nr-20171207/md5Hash2Data.txt",
		"copyRef" : 0
	}
}
